<svg width="27" height="31" viewBox="0 0 27 31" fill="none" xmlns="http://www.w3.org/2000/svg">
<path d="M24 22.1429V14.4667C23.25 14.6143 22.5 14.7619 21.75 14.7619H21V23.619H6V13.2857C6 9.15238 9.3 5.90476 13.5 5.90476C13.65 3.98571 14.55 2.3619 15.75 1.03333C15.3 0.442857 14.4 0 13.5 0C11.85 0 10.5 1.32857 10.5 2.95238V3.39524C6 4.72381 3 8.70952 3 13.2857V22.1429L0 25.0952V26.5714H27V25.0952L24 22.1429ZM10.5 28.0476C10.5 29.6714 11.85 31 13.5 31C15.15 31 16.5 29.6714 16.5 28.0476H10.5ZM27 6.64286C27 9.44762 24.6 11.8095 21.75 11.8095C18.9 11.8095 16.5 9.44762 16.5 6.64286C16.5 3.8381 18.9 1.47619 21.75 1.47619C24.6 1.47619 27 3.8381 27 6.64286Z" fill="#383576"/>
</svg>
